{
  "buttons": ["html", "format", "bold", "italic", "unorderedlist", "orderedlist", "link", "image", "video", "file"],
  "plugins": ["fullscreen", "video"],
  "linkNewTab": true,
  "toolbarFixed": true,
  "linebreaks": true
}
