<?xml version="1.0" encoding="utf-8"?>
<!-- Generator: Adobe Illustrator 24.1.3, SVG Export Plug-In . SVG Version: 6.00 Build 0)  -->
<svg version="1.1" id="Layer_1" xmlns="http://www.w3.org/2000/svg" xmlns:xlink="http://www.w3.org/1999/xlink" x="0px" y="0px"
	 viewBox="0 0 414 116.16" style="enable-background:new 0 0 414 116.16;" xml:space="preserve">
<style type="text/css">
	.st0{fill:#231F20;}
</style>
<g>
	<polygon class="st0" points="0,0 17.42,0 29.95,53.92 30.18,53.92 43.94,0 60.24,0 73.78,54.59 74,54.59 87.2,0 104.07,0 
		82.77,79.22 65.35,79.22 52.03,25.28 51.81,25.28 38.39,79.22 20.97,79.22 	"/>
	<path class="st0" d="M134.22,21.85h14.97v7.99h0.33c4-6.44,10.88-9.54,17.53-9.54c16.76,0,20.97,9.43,20.97,23.63v35.28h-15.76
		v-32.4c0-9.43-2.77-14.1-10.09-14.1c-8.55,0-12.21,4.78-12.21,16.43v30.07h-15.75L134.22,21.85L134.22,21.85z"/>
	<path class="st0" d="M222.93,32.17c-10.32,0-13.87,8.88-13.87,18.31c0,8.99,4.11,18.42,13.87,18.42c10.43,0,13.53-9.1,13.53-18.53
		C236.46,41.05,233.13,32.17,222.93,32.17 M236.68,71.89h-0.23c-3.66,6.22-10.1,8.88-17.42,8.88c-17.31,0-25.74-14.87-25.74-30.74
		c0-15.42,8.55-29.73,25.41-29.73c6.77,0,13.43,2.88,17.09,8.54h-0.11h0.22V0h15.76v79.22h-14.98V71.89z"/>
	<path class="st0" d="M271.46,60.58c0.11,6.88,5.88,9.66,12.09,9.66c4.55,0,10.32-1.78,10.32-7.33c0-4.77-6.54-6.44-17.86-8.88
		c-9.1-1.99-18.2-5.22-18.2-15.31c0-14.64,12.65-18.41,24.96-18.41c12.54,0,24.08,4.22,25.29,18.31h-14.98
		c-0.44-6.1-5.1-7.77-10.76-7.77c-5.11,0-8.77,1.22-8.77,5.33c0,4.22,4.44,5.78,14.98,7.88c12.87,2.55,21.08,6.43,21.08,16.75
		c0,15.09-13.09,19.97-26.19,19.97c-13.32,0-26.29-4.99-26.96-20.19L271.46,60.58L271.46,60.58z"/>
	<path class="st0" d="M342.42,68.9c10.76,0,13.98-9.21,13.98-18.31c0-9.21-3.22-18.42-13.98-18.42c-10.65,0-13.87,9.21-13.87,18.42
		C328.55,59.68,331.77,68.9,342.42,68.9 M342.42,20.3c18.08,0,29.73,11.98,29.73,30.29c0,18.21-11.65,30.18-29.73,30.18
		c-17.98,0-29.63-11.98-29.63-30.18C312.79,32.28,324.44,20.3,342.42,20.3"/>
	<path class="st0" d="M377.06,21.85h14.97V32.5h0.22c2.89-7.22,10.65-12.2,18.3-12.2c1.12,0,2.45,0.22,3.45,0.55V35.5
		c-1.44-0.33-3.78-0.56-5.66-0.56c-11.54,0-15.54,8.32-15.54,18.42v25.86h-15.75V21.85H377.06z"/>
	<polygon class="st0" points="102.66,21.79 109.29,27.32 109.29,79.22 125.04,79.22 125.04,21.85 125.04,21.79 	"/>
	<g>
		<path class="st0" d="M16.81,115.62l7.95-20.21h2.16l7.75,20.21h-1.96l-2.33-6.35h-9.21l-2.39,6.35H16.81z M21.81,107.64h7.92
			l-3.96-10.61L21.81,107.64z"/>
		<path class="st0" d="M38.57,106.44v9.18h-1.91V95.41h7.92c4.44,0,6.88,1.57,6.88,5.31c0,2.55-0.96,3.9-3.29,4.94
			c2.39,0.81,2.53,3.34,2.58,5.47c0.08,3.06,0.34,3.9,0.84,4.3v0.2h-2.11c-0.79-1.38-0.59-5.17-0.9-6.71
			c-0.45-2.19-2.11-2.47-4.01-2.47L38.57,106.44L38.57,106.44z M44.52,104.81c2.84,0,5.03-1.18,5.03-4.01
			c0-3.03-2.36-3.76-4.91-3.76h-6.06v7.78h5.94V104.81z"/>
		<path class="st0" d="M69.06,101.27c-0.79-3.45-2.92-4.77-6.37-4.77c-4.88,0-6.99,4.18-6.99,8.96c0,4.52,1.66,9.07,7.16,9.07
			c3.48,0,5.64-2.36,6.4-5.56h1.99c-0.9,3.9-3.34,7.19-8.76,7.19c-6.23,0-8.7-4.91-8.7-10.64c0-7.72,4.04-10.64,9.41-10.64
			c4.16,0,7.19,2.22,7.83,6.4L69.06,101.27L69.06,101.27z"/>
		<path class="st0" d="M74.25,115.62V95.41h1.91v8.68h11.96v-8.68h1.91v20.21h-1.91v-9.91H76.16v9.91H74.25z"/>
		<path class="st0" d="M94.52,115.62V95.41h1.91v20.21H94.52z"/>
		<path class="st0" d="M99.12,95.4h14.71v1.63h-6.4v18.59h-1.91V97.03h-6.4L99.12,95.4L99.12,95.4z"/>
		<path class="st0" d="M115.86,115.62V95.41h13.45v1.63h-11.54v7.3h10.42v1.63h-10.42V114h11.82v1.63h-13.73V115.62z"/>
		<path class="st0" d="M146.65,101.27c-0.79-3.45-2.92-4.77-6.37-4.77c-4.88,0-6.99,4.18-6.99,8.96c0,4.52,1.66,9.07,7.16,9.07
			c3.48,0,5.64-2.36,6.4-5.56h1.99c-0.9,3.9-3.34,7.19-8.76,7.19c-6.23,0-8.7-4.91-8.7-10.64c0-7.72,4.04-10.64,9.41-10.64
			c4.16,0,7.19,2.22,7.83,6.4L146.65,101.27L146.65,101.27z"/>
		<path class="st0" d="M150.05,95.4h14.71v1.63h-6.4v18.59h-1.91V97.03h-6.4L150.05,95.4L150.05,95.4z"/>
		<path class="st0" d="M166.81,95.4h1.91v12.04c0,5,1.8,7.08,5.92,7.08c4.35,0,5.92-2.3,5.92-7.08V95.4h1.91v12.61
			c0,5.25-2.61,8.14-7.83,8.14c-5.28,0-7.83-2.98-7.83-8.14V95.4z"/>
		<path class="st0" d="M188.23,106.44v9.18h-1.91V95.41h7.92c4.44,0,6.88,1.57,6.88,5.31c0,2.55-0.95,3.9-3.28,4.94
			c2.39,0.81,2.53,3.34,2.58,5.47c0.08,3.06,0.34,3.9,0.84,4.3v0.2h-2.11c-0.79-1.38-0.59-5.17-0.9-6.71
			c-0.45-2.19-2.11-2.47-4.02-2.47L188.23,106.44L188.23,106.44z M194.18,104.81c2.84,0,5.03-1.18,5.03-4.01
			c0-3.03-2.36-3.76-4.91-3.76h-6.06v7.78h5.94V104.81z"/>
		<path class="st0" d="M202.52,115.62l7.95-20.21h2.16l7.75,20.21h-1.97l-2.33-6.35h-9.21l-2.39,6.35H202.52z M207.51,107.64h7.92
			l-3.96-10.61L207.51,107.64z"/>
		<path class="st0" d="M222.39,115.62V95.41h1.91V114h10.84v1.63h-12.75V115.62z"/>
		<path class="st0" d="M241.23,106.58v9.04h-4.21V95.46h4.21v7.64h7.86v-7.64h4.21v20.16h-4.21v-9.04H241.23z"/>
		<path class="st0" d="M259.59,115.62h-4.44l7.19-20.16h4.86l7.1,20.16h-4.58l-1.29-4.16h-7.44L259.59,115.62z M262.12,107.98h5.14
			l-2.5-7.97h-0.06L262.12,107.98z"/>
		<path class="st0" d="M276.29,95.46h10.19c5.36,0,6.35,3.96,6.35,5.7c0,2.22-1.12,4.13-3.12,4.8c1.66,0.73,2.56,1.35,2.56,5.11
			c0,2.95,0,3.68,0.9,4.02v0.53h-4.66c-0.28-0.96-0.45-1.99-0.45-4.07c0-2.75-0.17-3.82-3.29-3.82h-4.35v7.89h-4.13V95.46
			L276.29,95.46z M285.36,104.33c2.19,0,3.26-0.76,3.26-2.75c0-1.07-0.48-2.64-2.95-2.64h-5.25v5.39H285.36z"/>
		<path class="st0" d="M295.86,95.46h8.9c6.79,0,8.2,5.78,8.2,9.6c0,4.32-1.71,10.56-8.37,10.56h-8.73V95.46z M299.99,112.14h4.1
			c3.42,0,4.58-3.45,4.58-6.77c0-5.95-2.84-6.43-4.63-6.43H300v13.2H299.99z"/>
		<path class="st0" d="M312.62,95.46h4.49c2.58,11.03,2.84,12.44,3.2,14.74h0.06c0.37-2.11,0.67-4.16,2.81-14.74h4.46
			c2.36,11.06,2.55,12.13,3,14.74h0.06c0.34-1.91,0.67-3.65,3.29-14.74h4.27l-5.67,20.16h-4.04c-2.08-9.88-2.44-11.85-3.12-15.72
			h-0.06c-0.62,3.88-0.96,5.33-3.12,15.72h-3.93L312.62,95.46z"/>
		<path class="st0" d="M341.28,115.62h-4.44l7.19-20.16h4.86l7.1,20.16h-4.58l-1.29-4.16h-7.44L341.28,115.62z M343.81,107.98h5.14
			l-2.5-7.97h-0.06L343.81,107.98z"/>
		<path class="st0" d="M357.99,95.46h10.19c5.36,0,6.35,3.96,6.35,5.7c0,2.22-1.12,4.13-3.12,4.8c1.66,0.73,2.56,1.35,2.56,5.11
			c0,2.95,0,3.68,0.9,4.02v0.53h-4.66c-0.28-0.96-0.45-1.99-0.45-4.07c0-2.75-0.17-3.82-3.29-3.82h-4.35v7.89h-4.13V95.46
			L357.99,95.46z M367.06,104.33c2.19,0,3.26-0.76,3.26-2.75c0-1.07-0.48-2.64-2.95-2.64h-5.25v5.39H367.06z"/>
		<path class="st0" d="M392.38,99.02h-10.7v4.24h9.83v3.57h-9.83v5.22h11.17v3.57h-15.3V95.46h14.82v3.56H392.38z"/>
	</g>
</g>
</svg>
