<?xml version="1.0" encoding="utf-8"?>
<!-- Generator: Adobe Illustrator 24.1.3, SVG Export Plug-In . SVG Version: 6.00 Build 0)  -->
<svg version="1.1" id="Layer_1" xmlns="http://www.w3.org/2000/svg" xmlns:xlink="http://www.w3.org/1999/xlink" x="0px" y="0px"
	 width="525px" height="751px" viewBox="0 0 525 751" style="enable-background:new 0 0 525 751;" xml:space="preserve">
<style type="text/css">
	.st0{fill:#961B4A;}
</style>
<polygon class="st0" points="0,0 525,0 0,751 "/>
</svg>
